TrafficLight/dump.vcd
$date
	Tue Jun 10 03:10:32 2025
$end
$version
	Icarus Verilog
$end
$timescale
	1ps
$end
$scope module Traffic_light_tb $end
$var wire 1 ! yellow_light $end
$var wire 1 " red_light $end
$var wire 1 # green_light $end
$var wire 7 $ count [6:0] $end
$var parameter 32 % CLK_DELAY $end
$var parameter 32 & CLK_PERIOD $end
$var parameter 32 ' CLK_WIDTH $end
$var parameter 32 ( pGREEN_INIT_VAL $end
$var parameter 32 ) pRED_INIT_VAL $end
$var parameter 32 * pSECOND_CNT_VALUE $end
$var parameter 32 + pYELLOW_INIT_VAL $end
$var reg 1 , clk $end
$var reg 1 - en $end
$var reg 1 . rst_n $end
$scope module u_dut $end
$var wire 1 , clk $end
$var wire 1 - en $end
$var wire 1 / light_cnt_en $end
$var wire 1 . rst_n $end
$var wire 1 ! yellow_light $end
$var wire 1 0 second_cnt_pre_last $end
$var wire 1 1 second_cnt_last $end
$var wire 1 " red_light $end
$var wire 5 2 light_cnt_out [4:0] $end
$var wire 1 3 light_cnt_last $end
$var wire 3 4 light_cnt_init [2:0] $end
$var wire 3 5 light [2:0] $end
$var wire 1 # green_light $end
$var wire 8 6 display_led_unit [7:0] $end
$var wire 8 7 display_led_dozens [7:0] $end
$var wire 7 8 count [6:0] $end
$var parameter 32 9 LIGHT_STATE_WIDTH $end
$var parameter 32 : pGREEN_IDX $end
$var parameter 32 ; pGREEN_INIT_VAL $end
$var parameter 32 < pINIT_WIDTH $end
$var parameter 32 = pLED_NO $end
$var parameter 32 > pLED_WIDTH $end
$var parameter 32 ? pLIGHT_CNT_WIDTH $end
$var parameter 32 @ pNUMBER_WIDTH $end
$var parameter 32 A pRED_IDX $end
$var parameter 32 B pRED_INIT_VAL $end
$var parameter 32 C pSECOND_CNT_VALUE $end
$var parameter 32 D pSECOND_CNT_WIDTH $end
$var parameter 32 E pYELLOW_IDX $end
$var parameter 32 F pYELLOW_INIT_VAL $end
$scope module dut1 $end
$var wire 1 , clk $end
$var wire 5 G cnt_out [4:0] $end
$var wire 1 / en $end
$var wire 1 . rst_n $end
$var wire 1 3 last $end
$var wire 3 H init [2:0] $end
$var parameter 32 I pCNT_WIDTH $end
$var parameter 32 J pGREEN_IDX $end
$var parameter 32 K pGREEN_INIT_VAL $end
$var parameter 32 L pINIT_WIDTH $end
$var parameter 32 M pRED_IDX $end
$var parameter 32 N pRED_INIT_VAL $end
$var parameter 32 O pYELLOW_IDX $end
$var parameter 32 P pYELLOW_INIT_VAL $end
$var reg 5 Q count [4:0] $end
$upscope $end
$scope module dut2 $end
$var wire 1 , clk $end
$var wire 1 - en $end
$var wire 5 R number [4:0] $end
$var wire 16 S display_led [15:0] $end
$var parameter 32 T pLED_NO $end
$var parameter 32 U pLED_WIDTH $end
$var parameter 32 V pNUMBER_WIDTH $end
$var reg 8 W dozens [7:0] $end
$var reg 8 X unit [7:0] $end
$upscope $end
$scope module dut3 $end
$var wire 1 , clk $end
$var wire 1 - en $end
$var wire 1 Y last_cnt $end
$var wire 3 Z light_cnt_init [2:0] $end
$var wire 1 3 light_cnt_last $end
$var wire 1 . rst_n $end
$var wire 1 0 second_cnt_pre_last $end
$var wire 3 [ light [2:0] $end
$var parameter 2 \ GREEN $end
$var parameter 2 ] IDLE $end
$var parameter 32 ^ LIGHT_STATE_WIDTH $end
$var parameter 2 _ RED $end
$var parameter 2 ` YELLOW $end
$var parameter 32 a pGREEN_IDX $end
$var parameter 32 b pRED_IDX $end
$var parameter 32 c pYELLOW_IDX $end
$var reg 2 d light_current_state [1:0] $end
$var reg 2 e light_next_state [1:0] $end
$var reg 3 f signal_light [2:0] $end
$var reg 3 g signal_light_cnt_init [2:0] $end
$upscope $end
$scope module second_cnt $end
$var wire 1 , clk $end
$var wire 7 h count [6:0] $end
$var wire 1 - en $end
$var wire 1 . rst_n $end
$var wire 1 0 pre_last $end
$var wire 1 1 last $end
$var parameter 32 i pMAX_VAL $end
$var reg 7 j int_count [6:0] $end
$upscope $end
$upscope $end
$upscope $end
$enddefinitions $end
$comment Show the parameter values. $end
$dumpall
b1100011 i
b1 c
b10 b
b0 a
b10 `
b11 _
b11 ^
b0 ]
b1 \
b101 V
b1000 U
b10 T
b10 P
b1 O
b10001 N
b10 M
b11 L
b1110 K
b0 J
b101 I
b10 F
b1 E
b111 D
b1100011 C
b10001 B
b10 A
b101 @
b101 ?
b1000 >
b10 =
b11 <
b1110 ;
b0 :
b11 9
b10 +
b1100011 *
b10001 )
b1110 (
b101 '
b1010 &
b101 %
$end
#0
$dumpvars
b1100011 j
b1100011 h
b0 g
b0 f
b0 e
b0 d
b0 [
b0 Z
0Y
b0 X
b0 W
b0 S
b1110 R
b1110 Q
b0 H
b1110 G
b1100011 8
b0 7
b0 6
b0 5
b0 4
03
b1110 2
01
00
0/
0.
0-
0,
b1100011 $
0#
0"
0!
$end
#5
1,
#10
0,
#15
1,
#20
0,
#25
1,
#30
0,
#35
1,
#40
0,
#45
1,
#50
b1100110 6
b110 7
b11001100110 S
1#
b1100110 X
b110 W
b1 5
b1 [
b1 f
b1 e
0,
1-
1.
#55
b1 5
b1 [
b1 f
b1 e
b1100010 $
b1100010 8
b1100010 h
b1100010 j
b1 d
1,
#60
0,
#65
b1100001 $
b1100001 8
b1100001 h
b1100001 j
1,
#70
0,
#75
b1100000 $
b1100000 8
b1100000 h
b1100000 j
1,
#80
0,
#85
b1011111 $
b1011111 8
b1011111 h
b1011111 j
1,
#90
0,
#95
b1011110 $
b1011110 8
b1011110 h
b1011110 j
1,
#100
0,
#105
b1011101 $
b1011101 8
b1011101 h
b1011101 j
1,
#110
0,
#115
b1011100 $
b1011100 8
b1011100 h
b1011100 j
1,
#120
0,
#125
b1011011 $
b1011011 8
b1011011 h
b1011011 j
1,
#130
0,
#135
b1011010 $
b1011010 8
b1011010 h
b1011010 j
1,
#140
0,
#145
b1011001 $
b1011001 8
b1011001 h
b1011001 j
1,
#150
0,
#155
b1011000 $
b1011000 8
b1011000 h
b1011000 j
1,
#160
0,
#165
b1010111 $
b1010111 8
b1010111 h
b1010111 j
1,
#170
0,
#175
b1010110 $
b1010110 8
b1010110 h
b1010110 j
1,
#180
0,
#185
b1010101 $
b1010101 8
b1010101 h
b1010101 j
1,
#190
0,
#195
b1010100 $
b1010100 8
b1010100 h
b1010100 j
1,
#200
0,
#205
b1010011 $
b1010011 8
b1010011 h
b1010011 j
1,
#210
0,
#215
b1010010 $
b1010010 8
b1010010 h
b1010010 j
1,
#220
0,
#225
b1010001 $
b1010001 8
b1010001 h
b1010001 j
1,
#230
0,
#235
b1010000 $
b1010000 8
b1010000 h
b1010000 j
1,
#240
0,
#245
b1001111 $
b1001111 8
b1001111 h
b1001111 j
1,
#250
0,
#255
b1001110 $
b1001110 8
b1001110 h
b1001110 j
1,
#260
0,
#265
b1001101 $
b1001101 8
b1001101 h
b1001101 j
1,
#270
0,
#275
b1001100 $
b1001100 8
b1001100 h
b1001100 j
1,
#280
0,
#285
b1001011 $
b1001011 8
b1001011 h
b1001011 j
1,
#290
0,
#295
b1001010 $
b1001010 8
b1001010 h
b1001010 j
1,
#300
0,
#305
b1001001 $
b1001001 8
b1001001 h
b1001001 j
1,
#310
0,
#315
b1001000 $
b1001000 8
b1001000 h
b1001000 j
1,
#320
0,
#325
b1000111 $
b1000111 8
b1000111 h
b1000111 j
1,
#330
0,
#335
b1000110 $
b1000110 8
b1000110 h
b1000110 j
1,
#340
0,
#345
b1000101 $
b1000101 8
b1000101 h
b1000101 j
1,
#350
0,
#355
b1000100 $
b1000100 8
b1000100 h
b1000100 j
1,
#360
0,
#365
b1000011 $
b1000011 8
b1000011 h
b1000011 j
1,
#370
0,
#375
b1000010 $
b1000010 8
b1000010 h
b1000010 j
1,
#380
0,
#385
b1000001 $
b1000001 8
b1000001 h
b1000001 j
1,
#390
0,
#395
b1000000 $
b1000000 8
b1000000 h
b1000000 j
1,
#400
0,
#405
b111111 $
b111111 8
b111111 h
b111111 j
1,
#410
0,
#415
b111110 $
b111110 8
b111110 h
b111110 j
1,
#420
0,
#425
b111101 $
b111101 8
b111101 h
b111101 j
1,
#430
0,
#435
b111100 $
b111100 8
b111100 h
b111100 j
1,
#440
0,
#445
b111011 $
b111011 8
b111011 h
b111011 j
1,
#450
0,
#455
b111010 $
b111010 8
b111010 h
b111010 j
1,
#460
0,
#465
b111001 $
b111001 8
b111001 h
b111001 j
1,
#470
0,
#475
b111000 $
b111000 8
b111000 h
b111000 j
1,
#480
0,
#485
b110111 $
b110111 8
b110111 h
b110111 j
1,
#490
0,
#495
b110110 $
b110110 8
b110110 h
b110110 j
1,
#500
0,
#505
b110101 $
b110101 8
b110101 h
b110101 j
1,
#510
0,
#515
b110100 $
b110100 8
b110100 h
b110100 j
1,
#520
0,
#525
b110011 $
b110011 8
b110011 h
b110011 j
1,
#530
0,
#535
b110010 $
b110010 8
b110010 h
b110010 j
1,
#540
0,
#545
b110001 $
b110001 8
b110001 h
b110001 j
1,
#550
0,
#555
b110000 $
b110000 8
b110000 h
b110000 j
1,
#560
0,
#565
b101111 $
b101111 8
b101111 h
b101111 j
1,
#570
0,
#575
b101110 $
b101110 8
b101110 h
b101110 j
1,
#580
0,
#585
b101101 $
b101101 8
b101101 h
b101101 j
1,
#590
0,
#595
b101100 $
b101100 8
b101100 h
b101100 j
1,
#600
0,
#605
b101011 $
b101011 8
b101011 h
b101011 j
1,
#610
0,
#615
b101010 $
b101010 8
b101010 h
b101010 j
1,
#620
0,
#625
b101001 $
b101001 8
b101001 h
b101001 j
1,
#630
0,
#635
b101000 $
b101000 8
b101000 h
b101000 j
1,
#640
0,
#645
b100111 $
b100111 8
b100111 h
b100111 j
1,
#650
0,
#655
b100110 $
b100110 8
b100110 h
b100110 j
1,
#660
0,
#665
b100101 $
b100101 8
b100101 h
b100101 j
1,
#670
0,
#675
b100100 $
b100100 8
b100100 h
b100100 j
1,
#680
0,
#685
b100011 $
b100011 8
b100011 h
b100011 j
1,
#690
0,
#695
b100010 $
b100010 8
b100010 h
b100010 j
1,
#700
0,
#705
b100001 $
b100001 8
b100001 h
b100001 j
1,
#710
0,
#715
b100000 $
b100000 8
b100000 h
b100000 j
1,
#720
0,
#725
b11111 $
b11111 8
b11111 h
b11111 j
1,
#730
0,
#735
b11110 $
b11110 8
b11110 h
b11110 j
1,
#740
0,
#745
b11101 $
b11101 8
b11101 h
b11101 j
1,
#750
0,
#755
b11100 $
b11100 8
b11100 h
b11100 j
1,
#760
0,
#765
b11011 $
b11011 8
b11011 h
b11011 j
1,
#770
0,
#775
b11010 $
b11010 8
b11010 h
b11010 j
1,
#780
0,
#785
b11001 $
b11001 8
b11001 h
b11001 j
1,
#790
0,
#795
b11000 $
b11000 8
b11000 h
b11000 j
1,
#800
0,
#805
b10111 $
b10111 8
b10111 h
b10111 j
1,
#810
0,
#815
b10110 $
b10110 8
b10110 h
b10110 j
1,
#820
0,
#825
b10101 $
b10101 8
b10101 h
b10101 j
1,
#830
0,
#835
b10100 $
b10100 8
b10100 h
b10100 j
1,
#840
0,
#845
b10011 $
b10011 8
b10011 h
b10011 j
1,
#850
0,
#855
b10010 $
b10010 8
b10010 h
b10010 j
1,
#860
0,
#865
b10001 $
b10001 8
b10001 h
b10001 j
1,
#870
0,
#875
b10000 $
b10000 8
b10000 h
b10000 j
1,
#880
0,
#885
b1111 $
b1111 8
b1111 h
b1111 j
1,
#890
0,
#895
b1110 $
b1110 8
b1110 h
b1110 j
1,
#900
0,
#905
b1101 $
b1101 8
b1101 h
b1101 j
1,
#910
0,
#915
b1100 $
b1100 8
b1100 h
b1100 j
1,
#920
0,
#925
b1011 $
b1011 8
b1011 h
b1011 j
1,
#930
0,
#935
b1010 $
b1010 8
b1010 h
b1010 j
1,
#940
0,
#945
b1001 $
b1001 8
b1001 h
b1001 j
1,
#950
0,
#955
b1000 $
b1000 8
b1000 h
b1000 j
1,
#960
0,
#965
b111 $
b111 8
b111 h
b111 j
1,
#970
0,
#975
b110 $
b110 8
b110 h
b110 j
1,
#980
0,
#985
b101 $
b101 8
b101 h
b101 j
1,
#990
0,
#995
b100 $
b100 8
b100 h
b100 j
1,
#1000
0,
#1005
b11 $
b11 8
b11 h
b11 j
1,
#1010
0,
#1015
b10 $
b10 8
b10 h
b10 j
1,
#1020
0,
#1025
10
b1 $
b1 8
b1 h
b1 j
1,
#1030
0,
#1035
1/
11
00
b0 $
b0 8
b0 h
b0 j
1,
#1040
0,
#1045
b1001111 6
0/
b11001001111 S
01
b1001111 X
b1101 2
b1101 G
b1101 R
b1101 Q
b1100011 $
b1100011 8
b1100011 h
b1100011 j
1,
#1050
0,
#1055
b1100010 $
b1100010 8
b1100010 h
b1100010 j
1,
#1060
0,
#1065
b1100001 $
b1100001 8
b1100001 h
b1100001 j
1,
#1070
0,
#1075
b1100000 $
b1100000 8
b1100000 h
b1100000 j
1,
#1080
0,
#1085
b1011111 $
b1011111 8
b1011111 h
b1011111 j
1,
#1090
0,
#1095
b1011110 $
b1011110 8
b1011110 h
b1011110 j
1,
#1100
0,
#1105
b1011101 $
b1011101 8
b1011101 h
b1011101 j
1,
#1110
0,
#1115
b1011100 $
b1011100 8
b1011100 h
b1011100 j
1,
#1120
0,
#1125
b1011011 $
b1011011 8
b1011011 h
b1011011 j
1,
#1130
0,
#1135
b1011010 $
b1011010 8
b1011010 h
b1011010 j
1,
#1140
0,
#1145
b1011001 $
b1011001 8
b1011001 h
b1011001 j
1,
#1150
0,
#1155
b1011000 $
b1011000 8
b1011000 h
b1011000 j
1,
#1160
0,
#1165
b1010111 $
b1010111 8
b1010111 h
b1010111 j
1,
#1170
0,
#1175
b1010110 $
b1010110 8
b1010110 h
b1010110 j
1,
#1180
0,
#1185
b1010101 $
b1010101 8
b1010101 h
b1010101 j
1,
#1190
0,
#1195
b1010100 $
b1010100 8
b1010100 h
b1010100 j
1,
#1200
0,
#1205
b1010011 $
b1010011 8
b1010011 h
b1010011 j
1,
#1210
0,
#1215
b1010010 $
b1010010 8
b1010010 h
b1010010 j
1,
#1220
0,
#1225
b1010001 $
b1010001 8
b1010001 h
b1010001 j
1,
#1230
0,
#1235
b1010000 $
b1010000 8
b1010000 h
b1010000 j
1,
#1240
0,
#1245
b1001111 $
b1001111 8
b1001111 h
b1001111 j
1,
#1250
0,
#1255
b1001110 $
b1001110 8
b1001110 h
b1001110 j
1,
#1260
0,
#1265
b1001101 $
b1001101 8
b1001101 h
b1001101 j
1,
#1270
0,
#1275
b1001100 $
b1001100 8
b1001100 h
b1001100 j
1,
#1280
0,
#1285
b1001011 $
b1001011 8
b1001011 h
b1001011 j
1,
#1290
0,
#1295
b1001010 $
b1001010 8
b1001010 h
b1001010 j
1,
#1300
0,
#1305
b1001001 $
b1001001 8
b1001001 h
b1001001 j
1,
#1310
0,
#1315
b1001000 $
b1001000 8
b1001000 h
b1001000 j
1,
#1320
0,
#1325
b1000111 $
b1000111 8
b1000111 h
b1000111 j
1,
#1330
0,
#1335
b1000110 $
b1000110 8
b1000110 h
b1000110 j
1,
#1340
0,
#1345
b1000101 $
b1000101 8
b1000101 h
b1000101 j
1,
#1350
0,
#1355
b1000100 $
b1000100 8
b1000100 h
b1000100 j
1,
#1360
0,
#1365
b1000011 $
b1000011 8
b1000011 h
b1000011 j
1,
#1370
0,
#1375
b1000010 $
b1000010 8
b1000010 h
b1000010 j
1,
#1380
0,
#1385
b1000001 $
b1000001 8
b1000001 h
b1000001 j
1,
#1390
0,
#1395
b1000000 $
b1000000 8
b1000000 h
b1000000 j
1,
#1400
0,
#1405
b111111 $
b111111 8
b111111 h
b111111 j
1,
#1410
0,
#1415
b111110 $
b111110 8
b111110 h
b111110 j
1,
#1420
0,
#1425
b111101 $
b111101 8
b111101 h
b111101 j
1,
#1430
0,
#1435
b111100 $
b111100 8
b111100 h
b111100 j
1,
#1440
0,
#1445
b111011 $
b111011 8
b111011 h
b111011 j
1,
#1450
0,
#1455
b111010 $
b111010 8
b111010 h
b111010 j
1,
#1460
0,
#1465
b111001 $
b111001 8
b111001 h
b111001 j
1,
#1470
0,
#1475
b111000 $
b111000 8
b111000 h
b111000 j
1,
#1480
0,
#1485
b110111 $
b110111 8
b110111 h
b110111 j
1,
#1490
0,
#1495
b110110 $
b110110 8
b110110 h
b110110 j
1,
#1500
0,
#1505
b110101 $
b110101 8
b110101 h
b110101 j
1,
#1510
0,
#1515
b110100 $
b110100 8
b110100 h
b110100 j
1,
#1520
0,
#1525
b110011 $
b110011 8
b110011 h
b110011 j
1,
#1530
0,
#1535
b110010 $
b110010 8
b110010 h
b110010 j
1,
#1540
0,
#1545
b110001 $
b110001 8
b110001 h
b110001 j
1,
#1550
0,
#1555
b110000 $
b110000 8
b110000 h
b110000 j
1,
#1560
0,
#1565
b101111 $
b101111 8
b101111 h
b101111 j
1,
#1570
0,
#1575
b101110 $
b101110 8
b101110 h
b101110 j
1,
#1580
0,
#1585
b101101 $
b101101 8
b101101 h
b101101 j
1,
#1590
0,
#1595
b101100 $
b101100 8
b101100 h
b101100 j
1,
#1600
0,
#1605
b101011 $
b101011 8
b101011 h
b101011 j
1,
#1610
0,
#1615
b101010 $
b101010 8
b101010 h
b101010 j
1,
#1620
0,
#1625
b101001 $
b101001 8
b101001 h
b101001 j
1,
#1630
0,
#1635
b101000 $
b101000 8
b101000 h
b101000 j
1,
#1640
0,
#1645
b100111 $
b100111 8
b100111 h
b100111 j
1,
#1650
0,
#1655
b100110 $
b100110 8
b100110 h
b100110 j
1,
#1660
0,
#1665
b100101 $
b100101 8
b100101 h
b100101 j
1,
#1670
0,
#1675
b100100 $
b100100 8
b100100 h
b100100 j
1,
#1680
0,
#1685
b100011 $
b100011 8
b100011 h
b100011 j
1,
#1690
0,
#1695
b100010 $
b100010 8
b100010 h
b100010 j
1,
#1700
0,
#1705
b100001 $
b100001 8
b100001 h
b100001 j
1,
#1710
0,
#1715
b100000 $
b100000 8
b100000 h
b100000 j
1,
#1720
0,
#1725
b11111 $
b11111 8
b11111 h
b11111 j
1,
#1730
0,
#1735
b11110 $
b11110 8
b11110 h
b11110 j
1,
#1740
0,
#1745
b11101 $
b11101 8
b11101 h
b11101 j
1,
#1750
0,
#1755
b11100 $
b11100 8
b11100 h
b11100 j
1,
#1760
0,
#1765
b11011 $
b11011 8
b11011 h
b11011 j
1,
#1770
0,
#1775
b11010 $
b11010 8
b11010 h
b11010 j
1,
#1780
0,
#1785
b11001 $
b11001 8
b11001 h
b11001 j
1,
#1790
0,
#1795
b11000 $
b11000 8
b11000 h
b11000 j
1,
#1800
0,
#1805
b10111 $
b10111 8
b10111 h
b10111 j
1,
#1810
0,
#1815
b10110 $
b10110 8
b10110 h
b10110 j
1,
#1820
0,
#1825
b10101 $
b10101 8
b10101 h
b10101 j
1,
#1830
0,
#1835
b10100 $
b10100 8
b10100 h
b10100 j
1,
#1840
0,
#1845
b10011 $
b10011 8
b10011 h
b10011 j
1,
#1850
0,
#1855
b10010 $
b10010 8
b10010 h
b10010 j
1,
#1860
0,
#1865
b10001 $
b10001 8
b10001 h
b10001 j
1,
#1870
0,
#1875
b10000 $
b10000 8
b10000 h
b10000 j
1,
#1880
0,
#1885
b1111 $
b1111 8
b1111 h
b1111 j
1,
#1890
0,
#1895
b1110 $
b1110 8
b1110 h
b1110 j
1,
#1900
0,
#1905
b1101 $
b1101 8
b1101 h
b1101 j
1,
#1910
0,
#1915
b1100 $
b1100 8
b1100 h
b1100 j
1,
#1920
0,
#1925
b1011 $
b1011 8
b1011 h
b1011 j
1,
#1930
0,
#1935
b1010 $
b1010 8
b1010 h
b1010 j
1,
#1940
0,
#1945
b1001 $
b1001 8
b1001 h
b1001 j
1,
#1950
0,
#1955
b1000 $
b1000 8
b1000 h
b1000 j
1,
#1960
0,
#1965
b111 $
b111 8
b111 h
b111 j
1,
#1970
0,
#1975
b110 $
b110 8
b110 h
b110 j
1,
#1980
0,
#1985
b101 $
b101 8
b101 h
b101 j
1,
#1990
0,
#1995
b100 $
b100 8
b100 h
b100 j
1,
#2000
0,
#2005
b11 $
b11 8
b11 h
b11 j
1,
#2010
0,
#2015
b10 $
b10 8
b10 h
b10 j
1,
#2020
0,
#2025
10
b1 $
b1 8
b1 h
b1 j
1,
#2030
0,
#2035
1/
11
00
b0 $
b0 8
b0 h
b0 j
1,
#2040
0,
#2045
b1011011 6
0/
b11001011011 S
01
b1011011 X
b1100 2
b1100 G
b1100 R
b1100 Q
b1100011 $
b1100011 8
b1100011 h
b1100011 j
1,
#2050
0,
#2055
b1100010 $
b1100010 8
b1100010 h
b1100010 j
1,
#2060
0,
#2065
b1100001 $
b1100001 8
b1100001 h
b1100001 j
1,
#2070
0,
#2075
b1100000 $
b1100000 8
b1100000 h
b1100000 j
1,
#2080
0,
#2085
b1011111 $
b1011111 8
b1011111 h
b1011111 j
1,
#2090
0,
#2095
b1011110 $
b1011110 8
b1011110 h
b1011110 j
1,
#2100
0,
#2105
b1011101 $
b1011101 8
b1011101 h
b1011101 j
1,
#2110
0,
#2115
b1011100 $
b1011100 8
b1011100 h
b1011100 j
1,
#2120
0,
#2125
b1011011 $
b1011011 8
b1011011 h
b1011011 j
1,
#2130
0,
#2135
b1011010 $
b1011010 8
b1011010 h
b1011010 j
1,
#2140
0,
#2145
b1011001 $
b1011001 8
b1011001 h
b1011001 j
1,
#2150
0,
#2155
b1011000 $
b1011000 8
b1011000 h
b1011000 j
1,
#2160
0,
#2165
b1010111 $
b1010111 8
b1010111 h
b1010111 j
1,
#2170
0,
#2175
b1010110 $
b1010110 8
b1010110 h
b1010110 j
1,
#2180
0,
#2185
b1010101 $
b1010101 8
b1010101 h
b1010101 j
1,
#2190
0,
#2195
b1010100 $
b1010100 8
b1010100 h
b1010100 j
1,
#2200
0,
#2205
b1010011 $
b1010011 8
b1010011 h
b1010011 j
1,
#2210
0,
#2215
b1010010 $
b1010010 8
b1010010 h
b1010010 j
1,
#2220
0,
#2225
b1010001 $
b1010001 8
b1010001 h
b1010001 j
1,
#2230
0,
#2235
b1010000 $
b1010000 8
b1010000 h
b1010000 j
1,
#2240
0,
#2245
b1001111 $
b1001111 8
b1001111 h
b1001111 j
1,
#2250
0,
#2255
b1001110 $
b1001110 8
b1001110 h
b1001110 j
1,
#2260
0,
#2265
b1001101 $
b1001101 8
b1001101 h
b1001101 j
1,
#2270
0,
#2275
b1001100 $
b1001100 8
b1001100 h
b1001100 j
1,
#2280
0,
#2285
b1001011 $
b1001011 8
b1001011 h
b1001011 j
1,
#2290
0,
#2295
b1001010 $
b1001010 8
b1001010 h
b1001010 j
1,
#2300
0,
#2305
b1001001 $
b1001001 8
b1001001 h
b1001001 j
1,
#2310
0,
#2315
b1001000 $
b1001000 8
b1001000 h
b1001000 j
1,
#2320
0,
#2325
b1000111 $
b1000111 8
b1000111 h
b1000111 j
1,
#2330
0,
#2335
b1000110 $
b1000110 8
b1000110 h
b1000110 j
1,
#2340
0,
#2345
b1000101 $
b1000101 8
b1000101 h
b1000101 j
1,
#2350
0,
#2355
b1000100 $
b1000100 8
b1000100 h
b1000100 j
1,
#2360
0,
#2365
b1000011 $
b1000011 8
b1000011 h
b1000011 j
1,
#2370
0,
#2375
b1000010 $
b1000010 8
b1000010 h
b1000010 j
1,
#2380
0,
#2385
b1000001 $
b1000001 8
b1000001 h
b1000001 j
1,
#2390
0,
#2395
b1000000 $
b1000000 8
b1000000 h
b1000000 j
1,
#2400
0,
#2405
b111111 $
b111111 8
b111111 h
b111111 j
1,
#2410
0,
#2415
b111110 $
b111110 8
b111110 h
b111110 j
1,
#2420
0,
#2425
b111101 $
b111101 8
b111101 h
b111101 j
1,
#2430
0,
#2435
b111100 $
b111100 8
b111100 h
b111100 j
1,
#2440
0,
#2445
b111011 $
b111011 8
b111011 h
b111011 j
1,
#2450
0,
#2455
b111010 $
b111010 8
b111010 h
b111010 j
1,
#2460
0,
#2465
b111001 $
b111001 8
b111001 h
b111001 j
1,
#2470
0,
#2475
b111000 $
b111000 8
b111000 h
b111000 j
1,
#2480
0,
#2485
b110111 $
b110111 8
b110111 h
b110111 j
1,
#2490
0,
#2495
b110110 $
b110110 8
b110110 h
b110110 j
1,
#2500
0,
#2505
b110101 $
b110101 8
b110101 h
b110101 j
1,
#2510
0,
#2515
b110100 $
b110100 8
b110100 h
b110100 j
1,
#2520
0,
#2525
b110011 $
b110011 8
b110011 h
b110011 j
1,
#2530
0,
#2535
b110010 $
b110010 8
b110010 h
b110010 j
1,
#2540
0,
#2545
b110001 $
b110001 8
b110001 h
b110001 j
1,
#2550
0,
#2555
b110000 $
b110000 8
b110000 h
b110000 j
1,
#2560
0,
#2565
b101111 $
b101111 8
b101111 h
b101111 j
1,
#2570
0,
#2575
b101110 $
b101110 8
b101110 h
b101110 j
1,
#2580
0,
#2585
b101101 $
b101101 8
b101101 h
b101101 j
1,
#2590
0,
#2595
b101100 $
b101100 8
b101100 h
b101100 j
1,
#2600
0,
#2605
b101011 $
b101011 8
b101011 h
b101011 j
1,
#2610
0,
#2615
b101010 $
b101010 8
b101010 h
b101010 j
1,
#2620
0,
#2625
b101001 $
b101001 8
b101001 h
b101001 j
1,
#2630
0,
#2635
b101000 $
b101000 8
b101000 h
b101000 j
1,
#2640
0,
#2645
b100111 $
b100111 8
b100111 h
b100111 j
1,
#2650
0,
#2655
b100110 $
b100110 8
b100110 h
b100110 j
1,
#2660
0,
#2665
b100101 $
b100101 8
b100101 h
b100101 j
1,
#2670
0,
#2675
b100100 $
b100100 8
b100100 h
b100100 j
1,
#2680
0,
#2685
b100011 $
b100011 8
b100011 h
b100011 j
1,
#2690
0,
#2695
b100010 $
b100010 8
b100010 h
b100010 j
1,
#2700
0,
#2705
b100001 $
b100001 8
b100001 h
b100001 j
1,
#2710
0,
#2715
b100000 $
b100000 8
b100000 h
b100000 j
1,
#2720
0,
#2725
b11111 $
b11111 8
b11111 h
b11111 j
1,
#2730
0,
#2735
b11110 $
b11110 8
b11110 h
b11110 j
1,
#2740
0,
#2745
b11101 $
b11101 8
b11101 h
b11101 j
1,
#2750
0,
#2755
b11100 $
b11100 8
b11100 h
b11100 j
1,
#2760
0,
#2765
b11011 $
b11011 8
b11011 h
b11011 j
1,
#2770
0,
#2775
b11010 $
b11010 8
b11010 h
b11010 j
1,
#2780
0,
#2785
b11001 $
b11001 8
b11001 h
b11001 j
1,
#2790
0,
#2795
b11000 $
b11000 8
b11000 h
b11000 j
1,
#2800
0,
#2805
b10111 $
b10111 8
b10111 h
b10111 j
1,
#2810
0,
#2815
b10110 $
b10110 8
b10110 h
b10110 j
1,
#2820
0,
#2825
b10101 $
b10101 8
b10101 h
b10101 j
1,
#2830
0,
#2835
b10100 $
b10100 8
b10100 h
b10100 j
1,
#2840
0,
#2845
b10011 $
b10011 8
b10011 h
b10011 j
1,
#2850
0,
#2855
b10010 $
b10010 8
b10010 h
b10010 j
1,
#2860
0,
#2865
b10001 $
b10001 8
b10001 h
b10001 j
1,
#2870
0,
#2875
b10000 $
b10000 8
b10000 h
b10000 j
1,
#2880
0,
#2885
b1111 $
b1111 8
b1111 h
b1111 j
1,
#2890
0,
#2895
b1110 $
b1110 8
b1110 h
b1110 j
1,
#2900
0,
#2905
b1101 $
b1101 8
b1101 h
b1101 j
1,
#2910
0,
#2915
b1100 $
b1100 8
b1100 h
b1100 j
1,
#2920
0,
#2925
b1011 $
b1011 8
b1011 h
b1011 j
1,
#2930
0,
#2935
b1010 $
b1010 8
b1010 h
b1010 j
1,
#2940
0,
#2945
b1001 $
b1001 8
b1001 h
b1001 j
1,
#2950
0,
#2955
b1000 $
b1000 8
b1000 h
b1000 j
1,
#2960
0,
#2965
b111 $
b111 8
b111 h
b111 j
1,
#2970
0,
#2975
b110 $
b110 8
b110 h
b110 j
1,
#2980
0,
#2985
b101 $
b101 8
b101 h
b101 j
1,
#2990
0,
#2995
b100 $
b100 8
b100 h
b100 j
1,
#3000
0,
#3005
b11 $
b11 8
b11 h
b11 j
1,
#3010
0,
#3015
b10 $
b10 8
b10 h
b10 j
1,
#3020
0,
#3025
10
b1 $
b1 8
b1 h
b1 j
1,
#3030
0,
#3035
1/
11
00
b0 $
b0 8
b0 h
b0 j
1,
#3040
0,
#3045
b110 6
0/
b11000000110 S
01
b110 X
b1011 2
b1011 G
b1011 R
b1011 Q
b1100011 $
b1100011 8
b1100011 h
b1100011 j
1,
#3050
0,
#3055
b1100010 $
b1100010 8
b1100010 h
b1100010 j
1,
#3060
0,
#3065
b1100001 $
b1100001 8
b1100001 h
b1100001 j
1,
#3070
0,
#3075
b1100000 $
b1100000 8
b1100000 h
b1100000 j
1,
#3080
0,
#3085
b1011111 $
b1011111 8
b1011111 h
b1011111 j
1,
#3090
0,
#3095
b1011110 $
b1011110 8
b1011110 h
b1011110 j
1,
#3100
0,
#3105
b1011101 $
b1011101 8
b1011101 h
b1011101 j
1,
#3110
0,
#3115
b1011100 $
b1011100 8
b1011100 h
b1011100 j
1,
#3120
0,
#3125
b1011011 $
b1011011 8
b1011011 h
b1011011 j
1,
#3130
0,
#3135
b1011010 $
b1011010 8
b1011010 h
b1011010 j
1,
#3140
0,
#3145
b1011001 $
b1011001 8
b1011001 h
b1011001 j
1,
#3150
0,
#3155
b1011000 $
b1011000 8
b1011000 h
b1011000 j
1,
#3160
0,
#3165
b1010111 $
b1010111 8
b1010111 h
b1010111 j
1,
#3170
0,
#3175
b1010110 $
b1010110 8
b1010110 h
b1010110 j
1,
#3180
0,
#3185
b1010101 $
b1010101 8
b1010101 h
b1010101 j
1,
#3190
0,
#3195
b1010100 $
b1010100 8
b1010100 h
b1010100 j
1,
#3200
0,
#3205
b1010011 $
b1010011 8
b1010011 h
b1010011 j
1,
